335.28 181.65 155.74 116.83
786.85 180.67 242.97 161.08
712.98 180.65 136.84 97.97
0.00 0.00 0.00 0.00
661.82 179.72 52.27 43.31
0.00 0.00 0.00 0.00
0.00 0.00 0.00 0.00
0.00 0.00 0.00 0.00
0.00 0.00 0.00 0.00
