895.96 200.29 346.04 174.71
757.75 182.67 281.86 178.54
693.19 179.73 129.97 93.21
456.66 181.62 78.16 60.51
675.10 179.14 68.53 53.83
652.10 179.00 45.07 37.64
636.97 178.32 33.63 27.53
0.00 0.00 0.00 0.00
0.00 0.00 0.00 0.00
