364.34 190.89 128.65 76.74
187.15 197.36 165.35 84.57
635.03 177.30 38.56 32.71
455.73 187.86 64.56 45.24
737.42 165.13 124.72 38.26
731.06 157.17 106.07 44.53
0.00 0.00 0.00 0.00
0.00 0.00 0.00 0.00
0.00 0.00 0.00 0.00
0.00 0.00 0.00 0.00
0.00 0.00 0.00 0.00
0.00 0.00 0.00 0.00
