62.24 203.59 263.25 125.85
1171.11 129.02 70.89 140.59
1023.99 138.78 218.01 115.57
921.83 153.45 235.96 86.21
316.46 192.74 123.80 66.71
732.15 179.53 159.00 101.31
698.19 175.64 93.22 71.15
402.21 188.64 72.35 49.59
672.52 179.57 58.89 40.83
659.47 181.41 49.16 33.72
0.00 0.00 0.00 0.00
0.00 0.00 0.00 0.00
0.00 0.00 0.00 0.00
0.00 0.00 0.00 0.00
0.00 0.00 0.00 0.00
0.00 0.00 0.00 0.00
0.00 0.00 0.00 0.00
