695.46 176.88 115.16 82.21
1068.51 152.90 173.49 139.57
963.18 122.57 278.82 129.68
0.00 0.00 0.00 0.00
340.69 183.13 101.53 65.43
1.00 208.07 262.83 152.82
849.37 150.48 207.85 71.09
445.82 181.43 55.49 37.77
0.00 0.00 0.00 0.00
0.00 0.00 0.00 0.00
0.00 0.00 0.00 0.00
