1.00 199.04 136.72 114.31
0.00 0.00 0.00 0.00
152.89 177.21 154.65 86.52
276.15 189.44 100.53 52.80
336.96 179.46 86.49 51.44
426.51 183.42 53.19 32.41
456.76 182.61 43.66 27.28
0.00 0.00 0.00 0.00
0.00 0.00 0.00 0.00
