1.00 193.31 243.37 181.69
855.28 188.04 386.72 186.96
463.73 181.10 54.00 32.61
0.00 0.00 0.00 0.00
540.28 176.31 64.66 22.06
340.93 182.39 78.78 26.75
645.28 173.98 68.24 20.78
0.00 0.00 0.00 0.00
0.00 0.00 0.00 0.00
