123.73 192.54 175.34 77.39
0.00 0.00 0.00 0.00
292.01 178.06 98.67 61.55
361.55 187.54 67.88 40.38
398.60 179.53 64.79 41.21
463.49 182.12 43.37 27.40
486.42 182.35 36.68 23.62
0.00 0.00 0.00 0.00
0.00 0.00 0.00 0.00
0.00 0.00 0.00 0.00
0.00 0.00 0.00 0.00
