214.92 196.14 172.27 97.32
336.52 192.76 106.28 62.00
401.87 189.91 69.99 47.77
441.45 187.39 57.91 37.15
806.17 153.14 127.64 48.30
803.78 152.99 85.56 45.72
775.08 156.09 92.47 41.16
1186.12 128.66 55.88 46.19
1130.93 128.35 111.07 45.84
1092.61 134.37 149.39 38.81
0.00 0.00 0.00 0.00
482.17 186.07 45.15 29.66
667.53 174.81 46.25 35.67
0.00 0.00 0.00 0.00
0.00 0.00 0.00 0.00
0.00 0.00 0.00 0.00
