0.00 0.00 0.00 0.00
1.00 190.70 195.45 107.51
0.00 0.00 0.00 0.00
0.00 0.00 0.00 0.00
719.82 175.64 17.86 15.39
286.60 181.69 71.02 27.12
561.90 179.03 28.17 19.21
0.00 0.00 0.00 0.00
0.00 0.00 0.00 0.00
0.00 0.00 0.00 0.00
0.00 0.00 0.00 0.00
