95.00 183.83 170.52 65.57
696.01 175.02 39.07 32.23
802.18 170.78 46.88 16.25
0.00 0.00 0.00 0.00
886.18 165.99 52.07 18.83
0.00 0.00 0.00 0.00
0.00 0.00 0.00 0.00
0.00 0.00 0.00 0.00
0.00 0.00 0.00 0.00
0.00 0.00 0.00 0.00
