1.00 200.18 110.25 174.82
465.40 190.15 68.26 43.43
81.87 199.14 236.54 124.14
345.46 195.99 88.75 52.62
630.25 181.78 30.43 26.59
711.86 171.44 96.66 29.97
706.56 164.16 83.42 35.53
0.00 0.00 0.00 0.00
0.00 0.00 0.00 0.00
0.00 0.00 0.00 0.00
0.00 0.00 0.00 0.00
0.00 0.00 0.00 0.00
0.00 0.00 0.00 0.00
