799.33 171.20 442.67 203.80
726.21 181.47 158.34 100.84
693.50 179.30 76.41 61.95
374.96 195.37 82.43 55.91
494.20 190.54 31.96 24.45
638.38 181.69 29.36 23.52
506.67 191.42 29.33 21.10
0.00 0.00 0.00 0.00
0.00 0.00 0.00 0.00
