0.00 0.00 0.00 0.00
0.00 0.00 0.00 0.00
1086.21 175.48 155.79 199.52
694.54 183.08 303.75 179.68
1.00 198.70 275.08 142.29
194.95 183.36 148.73 98.13
608.40 172.22 120.90 89.37
573.05 178.50 90.54 62.23
288.25 193.18 83.31 59.27
0.00 0.00 0.00 0.00
327.11 189.28 61.24 43.96
555.11 182.02 57.72 42.80
0.00 0.00 0.00 0.00
